module github.com/cosmos/interchain-security/v4

go 1.21.1

toolchain go1.21.6

require (
	cosmossdk.io/errors v1.0.1
	cosmossdk.io/math v1.2.0
	github.com/cometbft/cometbft v0.37.4
	github.com/cometbft/cometbft-db v0.8.0
	github.com/cosmos/cosmos-sdk v0.47.7
	github.com/cosmos/gogoproto v1.4.10
	github.com/cosmos/ibc-go/v7 v7.3.1
	github.com/cosmos/ics23/go v0.10.0
	github.com/golang/mock v1.6.0
	github.com/golang/protobuf v1.5.3
	github.com/gorilla/mux v1.8.0 // indirect
	github.com/grpc-ecosystem/grpc-gateway v1.16.0
	github.com/kylelemons/godebug v1.1.0
	github.com/oxyno-zeta/gomock-extra-matcher v1.2.0
	github.com/rakyll/statik v0.1.7 // indirect
	github.com/spf13/cast v1.6.0
	github.com/spf13/cobra v1.8.0
	github.com/stretchr/testify v1.8.4
	github.com/tidwall/gjson v1.17.0
	golang.org/x/crypto v0.17.0 // indirect
	golang.org/x/exp v0.0.0-20230711153332-06a737ee72cb
	golang.org/x/net v0.19.0 // indirect
	golang.org/x/sys v0.15.0 // indirect
	google.golang.org/genproto v0.0.0-20231211222908-989df2bf70f3 // indirect
	google.golang.org/grpc v1.60.1
	google.golang.org/protobuf v1.32.0
	gopkg.in/yaml.v2 v2.4.0
)

require (
	cloud.google.com/go v0.110.10 // indirect
	cloud.google.com/go/compute v1.23.3 // indirect
	cloud.google.com/go/compute/metadata v0.2.3 // indirect
	cloud.google.com/go/iam v1.1.5 // indirect
	cloud.google.com/go/storage v1.30.1 // indirect
	cosmossdk.io/api v0.3.1
	cosmossdk.io/core v0.5.1 // indirect
	cosmossdk.io/depinject v1.0.0-alpha.4 // indirect
	cosmossdk.io/tools/rosetta v0.2.1
	filippo.io/edwards25519 v1.0.0 // indirect
	github.com/99designs/go-keychain v0.0.0-20191008050251-8e49817e8af4 // indirect
	github.com/99designs/keyring v1.2.1 // indirect
	github.com/ChainSafe/go-schnorrkel v1.0.0 // indirect
	github.com/armon/go-metrics v0.4.1 // indirect
	github.com/aws/aws-sdk-go v1.44.203 // indirect
	github.com/beorn7/perks v1.0.1 // indirect
	github.com/bgentry/go-netrc v0.0.0-20140422174119-9fd32a8b3d3d // indirect
	github.com/bgentry/speakeasy v0.1.1-0.20220910012023-760eaf8b6816 // indirect
	github.com/btcsuite/btcd/btcec/v2 v2.3.2 // indirect
	github.com/cenkalti/backoff/v4 v4.1.3 // indirect
	github.com/cespare/xxhash v1.1.0 // indirect
	github.com/cespare/xxhash/v2 v2.2.0 // indirect
	github.com/chzyer/readline v1.5.1 // indirect
	github.com/cockroachdb/apd/v2 v2.0.2 // indirect
	github.com/coinbase/rosetta-sdk-go/types v1.0.0 // indirect
	github.com/confio/ics23/go v0.9.0 // indirect
	github.com/cosmos/btcutil v1.0.5 // indirect
	github.com/cosmos/cosmos-proto v1.0.0-beta.2
	github.com/cosmos/go-bip39 v1.0.0 // indirect
	github.com/cosmos/gogogateway v1.2.0 // indirect
	github.com/cosmos/iavl v0.20.1 // indirect
	github.com/cosmos/ledger-cosmos-go v0.12.4 // indirect
	github.com/cosmos/rosetta-sdk-go v0.10.0 // indirect
	github.com/creachadair/taskgroup v0.4.2 // indirect
	github.com/danieljoos/wincred v1.1.2 // indirect
	github.com/davecgh/go-spew v1.1.1
	github.com/decred/dcrd/dcrec/secp256k1/v4 v4.1.0 // indirect
	github.com/desertbit/timer v0.0.0-20180107155436-c41aec40b27f // indirect
	github.com/dgraph-io/badger/v2 v2.2007.4 // indirect
	github.com/dgraph-io/ristretto v0.1.1 // indirect
	github.com/dgryski/go-farm v0.0.0-20200201041132-a6ae2369ad13 // indirect
	github.com/dustin/go-humanize v1.0.1 // indirect
	github.com/dvsekhvalnov/jose2go v1.6.0 // indirect
	github.com/felixge/httpsnoop v1.0.2 // indirect
	github.com/fsnotify/fsnotify v1.6.0 // indirect
	github.com/go-kit/kit v0.12.0 // indirect
	github.com/go-kit/log v0.2.1 // indirect
	github.com/go-logfmt/logfmt v0.6.0 // indirect
	github.com/godbus/dbus v0.0.0-20190726142602-4481cbc300e2 // indirect
	github.com/gogo/googleapis v1.4.1 // indirect
	github.com/gogo/protobuf v1.3.2 // indirect
	github.com/golang/glog v1.1.2 // indirect
	github.com/golang/groupcache v0.0.0-20210331224755-41bb18bfe9da // indirect
	github.com/golang/snappy v0.0.4 // indirect
	github.com/google/btree v1.1.2 // indirect
	github.com/google/go-cmp v0.6.0
	github.com/google/orderedcode v0.0.1 // indirect
	github.com/google/uuid v1.4.0 // indirect
	github.com/googleapis/enterprise-certificate-proxy v0.3.2 // indirect
	github.com/googleapis/gax-go/v2 v2.12.0 // indirect
	github.com/gorilla/handlers v1.5.1 // indirect
	github.com/gorilla/websocket v1.5.0 // indirect
	github.com/grpc-ecosystem/go-grpc-middleware v1.3.0 // indirect
	github.com/gsterjov/go-libsecret v0.0.0-20161001094733-a6f4afe4910c // indirect
	github.com/gtank/merlin v0.1.1 // indirect
	github.com/gtank/ristretto255 v0.1.2 // indirect
	github.com/hashicorp/go-cleanhttp v0.5.2 // indirect
	github.com/hashicorp/go-getter v1.7.1 // indirect
	github.com/hashicorp/go-immutable-radix v1.3.1 // indirect
	github.com/hashicorp/go-safetemp v1.0.0 // indirect
	github.com/hashicorp/go-uuid v1.0.2 // indirect
	github.com/hashicorp/go-version v1.6.0 // indirect
	github.com/hashicorp/golang-lru v0.5.5-0.20210104140557-80c98217689d // indirect
	github.com/hashicorp/hcl v1.0.0 // indirect
	github.com/hdevalence/ed25519consensus v0.1.0 // indirect
	github.com/huandu/skiplist v1.2.0 // indirect
	github.com/improbable-eng/grpc-web v0.15.0 // indirect
	github.com/inconshreveable/mousetrap v1.1.0 // indirect
	github.com/jmespath/go-jmespath v0.4.0 // indirect
	github.com/jmhodges/levigo v1.0.0 // indirect
	github.com/klauspost/compress v1.16.7 // indirect
	github.com/lib/pq v1.10.7 // indirect
	github.com/libp2p/go-buffer-pool v0.1.0 // indirect
	github.com/linxGnu/grocksdb v1.7.16 // indirect
	github.com/magiconair/properties v1.8.7 // indirect
	github.com/manifoldco/promptui v0.9.0 // indirect
	github.com/mattn/go-isatty v0.0.19 // indirect
	github.com/matttproud/golang_protobuf_extensions v1.0.4 // indirect
	github.com/mimoo/StrobeGo v0.0.0-20210601165009-122bf33a46e0 // indirect
	github.com/minio/highwayhash v1.0.2 // indirect
	github.com/mitchellh/go-homedir v1.1.0 // indirect
	github.com/mitchellh/go-testing-interface v1.14.1 // indirect
	github.com/mitchellh/mapstructure v1.5.0 // indirect
	github.com/mtibben/percent v0.2.1 // indirect
	github.com/pelletier/go-toml/v2 v2.0.8 // indirect
	github.com/petermattis/goid v0.0.0-20230317030725-371a4b8eda08 // indirect
	github.com/pkg/errors v0.9.1 // indirect
	github.com/pmezard/go-difflib v1.0.0 // indirect
	github.com/prometheus/client_golang v1.14.0 // indirect
	github.com/prometheus/client_model v0.3.0 // indirect
	github.com/prometheus/common v0.42.0 // indirect
	github.com/prometheus/procfs v0.9.0 // indirect
	github.com/rcrowley/go-metrics v0.0.0-20201227073835-cf1acfcdf475 // indirect
	github.com/rs/cors v1.8.3 // indirect
	github.com/sasha-s/go-deadlock v0.3.1 // indirect
	github.com/spf13/afero v1.9.5 // indirect
	github.com/spf13/jwalterweatherman v1.1.0 // indirect
	github.com/spf13/pflag v1.0.5 // indirect
	github.com/subosito/gotenv v1.4.2 // indirect
	github.com/syndtr/goleveldb v1.0.1-0.20220721030215-126854af5e6d // indirect
	github.com/tendermint/go-amino v0.16.0 // indirect
	github.com/tidwall/btree v1.6.0 // indirect
	github.com/tidwall/match v1.1.1 // indirect
	github.com/tidwall/pretty v1.2.0 // indirect
	github.com/ulikunitz/xz v0.5.11 // indirect
	github.com/zondax/hid v0.9.2 // indirect
	github.com/zondax/ledger-go v0.14.3 // indirect
	go.etcd.io/bbolt v1.3.7 // indirect
	go.opencensus.io v0.24.0 // indirect
	golang.org/x/oauth2 v0.13.0 // indirect
	golang.org/x/term v0.15.0 // indirect
	golang.org/x/text v0.14.0 // indirect
	golang.org/x/xerrors v0.0.0-20220907171357-04be3eba64a2 // indirect
	google.golang.org/api v0.149.0 // indirect
	google.golang.org/appengine v1.6.8 // indirect
	gopkg.in/ini.v1 v1.67.0 // indirect
	gopkg.in/yaml.v3 v3.0.1 // indirect
	nhooyr.io/websocket v1.8.6 // indirect
	pgregory.net/rapid v1.1.0
	sigs.k8s.io/yaml v1.3.0 // indirect
)

require (
	github.com/informalsystems/itf-go v0.0.1
	github.com/spf13/viper v1.16.0
	google.golang.org/genproto/googleapis/api v0.0.0-20231120223509-83a465c0220f
)

require (
	cosmossdk.io/log v1.2.1 // indirect
	github.com/cockroachdb/errors v1.10.0 // indirect
	github.com/cockroachdb/logtags v0.0.0-20230118201751-21c54148d20b // indirect
	github.com/cockroachdb/redact v1.1.5 // indirect
	github.com/getsentry/sentry-go v0.23.0 // indirect
	github.com/google/s2a-go v0.1.7 // indirect
	github.com/kr/pretty v0.3.1 // indirect
	github.com/kr/text v0.2.0 // indirect
	github.com/mattn/go-colorable v0.1.13 // indirect
	github.com/rogpeppe/go-internal v1.11.0 // indirect
	github.com/rs/zerolog v1.30.0 // indirect
	go.uber.org/mock v0.2.0 // indirect
	golang.org/x/sync v0.4.0 // indirect
	google.golang.org/genproto/googleapis/rpc v0.0.0-20231212172506-995d672761c0 // indirect
)

// following versions might cause unexpected behavior
replace github.com/syndtr/goleveldb => github.com/syndtr/goleveldb v1.0.1-0.20210819022825-2ae1ddf74ef7
